{
  "ConfigurationInformation": {
    "Version": "1.0.0",
    "FormatVersion": "1.0.0",
    "Description": "AMQP connection settings for the SIRI interface"
  },

  "AmqpSettings": {
    "Connections": [
      {
        "Id": "PTIS",
        "Brokers": {
          "BrokerConnections": [
            {
              "Host": "localhost",
              "UserName": "guest",
              "Password": "ntBIQed8JXSgoK7fUyPT8A=="
            }
          ],
          "Exchanges": [
            {
              "Name": "QR.PTIS.SIRI",
              "Services": [ "PtService", "EtService", "VmService" ]
            }
          ]
        }
      }
    ]
  }
}